the 1639
and 866
to 725
a 631
she 541
it 530
of 511
said 462
i 408
alice 386
in 367
you 365
was 357
that 280
as 263
her 248
at 212
on 193
all 182
with 181
had 178
but 170
for 153
so 151
be 148
not 145
very 144
what 136
this 134
they 130
little 128
he 120
out 113
is 108
one 103
down 102
up 98
if 96
his 96
about 94
then 94
no 90
them 88
know 87
were 85
like 85
would 83
went 83
herself 83
again 83
do 81
have 80
when 79
or 77
could 77
there 75
thought 74
off 73
time 68
me 68
how 68
queen 68
see 67
into 67
did 63
your 62
king 61
who 61
don’t 61
now 60
well 60
i’m 59
my 58
began 58
an 57
its 57
turtle 57
by 57
it’s 57
mock 56
quite 55
gryphon 55
hatter 55
are 54
way 53
think 53
just 52
their 52
some 51
first 51
here 51
say 51
much 51
only 50
go 50
head 49
more 49
which 49
thing 49
voice 48
never 47
come 46
get 46
oh 45
looked 45
got 45
must 44
him 43
rabbit 43
mouse 42
after 42
round 41
such 41
tone 40
other 40
came 40
over 40
why 40
dormouse 39
duchess 39
any 39
two 39
great 39
before 38
back 38
been 38
from 36
can 35
cat 35
i’ve 34
march 34
nothing 34
that’s 34
once 34
last 33
large 33
will 33
tell 32
long 32
found 32
put 31
hare 31
i’ll 31
right 31
white 30
we 30
next 30
made 30
heard 30
door 30
things 30
looking 30
eyes 29
dear 29
moment 29
replied 29
can’t 28
might 28
look 28
should 27
caterpillar 27
seemed 27
going 27
make 27
poor 27
too 26
upon 26
without 26
three 26
away 25
while 25
day 25
yet 25
shall 25
course 25
soon 25
rather 25
good 24
than 24
took 24
won’t 24
same 24
sure 24
there’s 24
you’re 23
felt 23
added 23
getting 22
another 22
take 22
minute 21
half 21
ever 21
find 21
till 21
words 21
wish 21
hand 20
sort 20
anything 20
cried 20
however 20
tried 19
old 19
feet 19
please 19
being 19
even 19
curious 19
table 18
court 18
soup 18
eat 18
wonder 18
something 18
end 18
house 18
enough 18
use 18
spoke 17
jury 17
asked 17
let 17
sat 17
side 17
perhaps 17
question 17
talking 17
garden 16
indeed 16
turned 16
hastily 16
doesn’t 16
bit 16
under 16
ran 16
high 16
near 15
mad 15
knew 15
called 15
saying 15
gave 15
speak 15
face 15
done 15
idea 15
am 15
seen 15
because 15
set 14
beginning 14
us 14
saw 14
remember 14
silence 14
anxiously 14
both 14
these 14
certainly 14
itself 14
low 14
suppose 14
change 14
better 14
didn’t 14
hear 14
ought 14
left 14
trying 14
air 14
through 14
talk 14
gone 13
people 13
wouldn’t 13
beautiful 13
far 13
behind 13
they’re 13
whole 13
baby 13
dodo 13
grow 13
dance 13
always 13
cook 13
yes 13
size 13
kept 13
really 13
tea 13
suddenly 13
close 13
used 13
may 13
where 13
sea 13
room 13
bill 13
begin 13
still 13
cats 13
pigeon 12
hardly 12
try 12
turning 12
finished 12
majesty 12
deal 12
many 12
game 12
among 12
arm 12
give 12
afraid 12
everything 12
every 12
chapter 12
best 12
hands 12
makes 11
alice’s 11
tears 11
hurry 11
glad 11
minutes 11
life 11
thinking 11
hurried 11
else 11
gloves 11
nearly 11
growing 11
keep 11
mind 11
read 11
dinah 11
waited 11
i’d 11
ask 11
whether 11
wasn’t 11
though 11
pool 11
witness 10
remark 10
remarked 10
footman 10
bottle 10
walked 10
mean 10
offended 10
you’d 10
own 10
sight 10
word 10
hold 10
fan 10
having 10
sitting 10
those 10
birds 10
lessons 10
yourself 10
heads 10
turn 10
rest 10
repeated 10
foot 10
child 10
children 10
small 10
soldiers 10
name 10
explain 10
either 10
mouth 10
creatures 10
queer 10
opened 10
different 9
shook 9
does 9
join 9
call 9
answer 9
leave 9
against 9
serpent 9
mine 9
glass 9
reason 9
tail 9
key 9
coming 9
continued 9
few 9
hall 9
angrily 9
puzzled 9
rate 9
timidly 9
together 9
interrupted 9
waiting 9
help 9
least 9
conversation 9
knave 9
want 9
believe 9
matter 9
shouted 9
couldn’t 9
sister 8
wood 8
five 8
followed 8
moral 8
appeared 8
place 8
it’ll 8
hadn’t 8
beg 8
twinkle 8
distance 8
eagerly 8
fact 8
slowly 8
story 8
running 8
nobody 8
asleep 8
haven’t 8
opportunity 8
live 8
pig 8
making 8
seem 8
most 8
lying 8
ready 8
happen 8
exactly 8
whiting 8
party 8
each 8
mushroom 8
changed 8
sit 8
hearts 8
play 8
top 8
hard 8
dry 8
meaning 8
nose 8
feel 8
everybody 8
watch 8
window 8
noticed 8
gardeners 8
our 8
work 8
golden 7
soo 7
generally 7
pepper 7
you’ve 7
listen 7
begun 7
cheshire 7
stood 7
others 7
drink 7
important 7
goes 7
lobsters 7
chin 7
she’s 7
world 7
manage 7
open 7
book 7
history 7
queen’s 7
draw 7
shoes 7
adventures 7
happened 7
pleased 7
larger 7
william 7
business 7
eye 7
feeling 7
tired 7
bright 7
evidence 7
hedgehog 7
lory 7
fancy 7
repeat 7
trees 7
slates 7
wondering 7
silent 7
fall 7
neck 7
nonsense 7
learn 7
has 7
somebody 7
hair 7
tarts 7
middle 7
kind 7
lobster 7
dream 7
song 7
deep 7
frightened 7
surprised 7
myself 7
sir 7
oop 7
isn’t 7
fetch 7
grown 7
trial 7
inches 6
broken 6
pardon 6
croquet 6
sentence 6
politely 6
late 6
grin 6
fell 6
seven 6
marked 6
stand 6
dreadfully 6
executed 6
sing 6
write 6
along 6
e 6
forgotten 6
jumped 6
youth 6
leaves 6
understand 6
stupid 6
sleep 6
ten 6
father 6
breadandbutter 6
melancholy 6
written 6
chimney 6
arms 6
loud 6
almost 6
told 6
four 6
english 6
between 6
trouble 6
sneezing 6
ear 6
sharp 6
puppy 6
exclaimed 6
you’ll 6
full 6
nice 6
subject 6
roof 6
chorus 6
himself 6
times 6
shan’t 6
liked 6
stop 6
wow 6
trembling 6
moved 5
hot 5
[ 5
meant 5
sometimes 5
strange 5
altogether 5
jurymen 5
rule 5
young 5
kid 5
notice 5
flamingo 5
finger 5
knee 5
quietly 5
often 5
case 5
passed 5
instantly 5
shriek 5
remembered 5
evening 5
likely 5
ah 5
pocket 5
shouldn’t 5
new 5
walking 5
sudden 5
ground 5
pack 5
interesting 5
crowded 5
simple 5
height 5
twice 5
become 5
doing 5
sounded 5
morning 5
wrong 5
treacle 5
nervous 5
tree 5
swim 5
procession 5
let’s 5
lizard 5
taking 5
confusion 5
what’s 5
home 5
stay 5
temper 5
direction 5
across 5
sighed 5
piece 5
waving 5
executioner 5
speaking 5
nine 5
sadly 5
asking 5
sleepy 5
until 5
nearer 5
walk 5
happens 5
pair 5
seems 5
shrill 5
angry 5
prizes 5
faces 5
usual 5
school 5
dare 5
ears 5
hookah 5
whispered 5
means 5
unimportant 5
reply 5
impatiently 5
cut 5
eggs 5
shut 5
dropped 5
aloud 5
surprise 5
finish 5
number 5
curiosity 5
swam 5
man 5
drew 5
beat 4
fond 4
rabbit’s 4
fallen 4
sides 4
outside 4
tale 4
earth 4
since 4
consider 4
corner 4
alone 4
players 4
verse 4
duck 4
says 4
savage 4
they’ll 4
stuff 4
uncomfortable 4
jurors 4
escape 4
ordered 4
mice 4
arches 4
lay 4
dead 4
girl 4
honour 4
worth 4
ootiful 4
grass 4
otherwise 4
breath 4
shoulder 4
kitchen 4
particular 4
french 4
reach 4
rabbithole 4
severely 4
tiny 4
age 4
argument 4
managed 4
capital 4
chance 4
indignantly 4
perfectly 4
person 4
passage 4
judge 4
less 4
fellow 4
frowning 4
thank 4
m 4
carried 4
officers 4
puzzling 4
bill’s 4
box 4
twinkling 4
water 4
questions 4
tongue 4
ventured 4
rosetree 4
several 4
doubt 4
difficulty 4
hearing 4
porpoise 4
quadrille 4
thimble 4
bottom 4
green 4
suppressed 4
shrinking 4
taught 4
fear 4
fish 4
lives 4
screamed 4
pointing 4
plan 4
care 4
violently 4
twelve 4
dish 4
hours 4
vanished 4
alas 4
deeply 4
second 4
animals 4
led 4
hers 4
begins 4
stick 4
besides 4
catch 4
confused 4
short 4
mabel 4
verses 4
busily 4
yer 4
natural 4
run 4
bats 4
jumping 4
bowed 4
sigh 4
except 4
shoulders 4
sharply 4
crumbs 4
taken 4
miss 4
decidedly 4
mouths 4
answered 4
sounds 4
they’d 4
ann 4
sky 4
today 4
creature 4
guineapigs 4
crowd 4
paws 4
thoughtfully 4
boots 4
held 4
grunted 4
pale 4
wanted 4
mary 4
days 4
none 4
paper 4
solemnly 4
digging 4
verdict 4
writing 4
fast 4
sobs 4
true 4
beau 4
jurybox 4
pictures 4
list 3
howling 3
serpents 3
lived 3
hoarse 3
crab 3
bank 3
master 3
decided 3
girls 3
instance 3
finding 3
butter 3
filled 3
hungry 3
night 3
floor 3
candle 3
teacup 3
tails 3
nibbling 3
caught 3
letter 3
nor 3
panther 3
mistake 3
fire 3
moving 3
passion 3
fury 3
move 3
eager 3
funny 3
cry 3
pressed 3
considering 3
around 3
lady 3
paw 3
miles 3
handed 3
fur 3
love 3
expecting 3
lost 3
certain 3
fit 3
effect 3
dark 3
attending 3
shore 3
tucked 3
sense 3
civil 3
legs 3
doth 3
caucusrace 3
elbow 3
settled 3
courage 3
yours 3
easily 3
bring 3
cautiously 3
real 3
notion 3
grand 3
order 3
repeating 3
guessed 3
themselves 3
knocking 3
whatever 3
trumpet 3
dears 3
show 3
beheaded 3
above 3
remarking 3
sound 3
stairs 3
eaglet 3
hanging 3
gently 3
free 3
dull 3
fly 3
follows 3
o 3
joined 3
nurse 3
music 3
longer 3
cheered 3
knowledge 3
shaking 3
present 3
turns 3
hoping 3
muttering 3
toes 3
faster 3
week 3
hush 3
stopped 3
wonderland 3
crash 3
voices 3
o’clock 3
snail 3
trial’s 3
kick 3
remarks 3
breathe 3
cake 3
smaller 3
tossing 3
wrote 3
fun 3
advantage 3
slipped 3
proper 3
advance 3
peeped 3
allow 3
poison 3
holding 3
boy 3
reading 3
slate 3
outoftheway 3
hope 3
forgetting 3
succeeded 3
pat 3
she’ll 3
crossed 3
sad 3
bringing 3
rules 3
dogs 3
em 3
somewhere 3
gravely 3
possibly 3
nursing 3
suit 3
pattering 3
simply 3
tasted 3
worse 3
hurt 3
general 3
throw 3
cards 3
further 3
roses 3
below 3
figure 3
immediately 3
delight 3
sobbing 3
alive 3
execution 3
guess 3
speech 3
washing 3
tis 3
considered 3
grave 3
checked 3
whiskers 3
pleaded 3
putting 3
mentioned 3
impossible 3
sulky 3
guests 3
spectacles 3
anxious 3
livery 3
whisper 3
confusing 3
telescope 3
carefully 3
listening 3
folded 3
he’s 3
tortoise 3
loudly 3
mark 3
met 3
sorts 3
yesterday 3
hunting 3
brought 3
watching 3
crown 3
duchess’s 3
sighing 3
solemn 3
cakes 3
obliged 3
remained 3
pray 3
timid 3
growl 3
cause 3
grinned 3
upset 3
noise 3
choked 3
bat 3
edge 3
plate 3
directions 3
needn’t 3
muchness 3
pity 3
friend 3
spread 3
owl 3
venture 3
picked 3
staring 3
croquetground 3
instead 3
opening 3
pieces 3
hedgehogs 3
unfortunate 3
blow 2
wonderful 2
smallest 2
moment’s 2
twist 2
sooner 2
teatime 2
concluded 2
recovered 2
break 2
wise 2
pinch 2
tiptoe 2
comes 2
knows 2
usually 2
thump 2
imagine 2
wasting 2
unhappy 2
month 2
violent 2
sensation 2
delighted 2
crying 2
where’s 2
belongs 2
hasn’t 2
busy 2
manner 2
excellent 2
nibbled 2
taller 2
halfpast 2
rome 2
dreadful 2
fright 2
concert 2
regular 2
edwin 2
pleasure 2
wandering 2
longed 2
distant 2
humbly 2
wildly 2
personal 2
anger 2
giving 2
closed 2
quarrelling 2
royal 2
extraordinary 2
scroll 2
thistle 2
raised 2
conversations 2
smiling 2
luckily 2
smoking 2
wet 2
wink 2
tells 2
unpleasant 2
front 2
mystery 2
smiled 2
giddy 2
sent 2
falling 2
doubtful 2
mercia 2
resting 2
hint 2
tut 2
pinched 2
stretching 2
brightened 2
wandered 2
pennyworth 2
turtle’s 2
latitude 2
cauldron 2
archbishop 2
courtiers 2
mustard 2
collected 2
editions 2
branches 2
sulkily 2
burn 2
riddles 2
doors 2
living 2
raving 2
disappeared 2
yawning 2
undertone 2
constant 2
broke 2
matters 2
salt 2
invited 2
six 2
weak 2
who’s 2
chose 2
lovely 2
quiet 2
extremely 2
lap 2
wide 2
within 2
crimson 2
blew 2
catching 2
thousand 2
spoon 2
ill 2
label 2
race 2
leaning 2
carrying 2
cool 2
takes 2
sisters 2
stirring 2
laid 2
morcar 2
thoroughly 2
atom 2
lonely 2
meet 2
flat 2
drawling 2
_i_ 2
she’d 2
denied 2
flowers 2
dog 2
jar 2
interrupting 2
comfits 2
plates 2
proud 2
beautifully 2
safe 2
uneasily 2
wretched 2
waistcoatpocket 2
directly 2
knot 2
advice 2
older 2
maybe 2
stoop 2
bad 2
we’ve 2
picking 2
beating 2
wash 2
heavy 2
barrowful 2
fashion 2
returned 2
treaclewell 2
offer 2
clock 2
using 2
shutting 2
brown 2
coaxing 2
thoughts 2
rattling 2
goose 2
dishes 2
quick 2
mostly 2
muttered 2
footsteps 2
afterwards 2
’tis 2
wherever 2
dinner 2
conclusion 2
clear 2
smile 2
dancing 2
twentyfour 2
proved 2
narrow 2
declare 2
rapidly 2
swimming 2
persisted 2
turtles 2
pie 2
feeble 2
teaparty 2
shorter 2
apples 2
proceed 2
cat’s 2
parchment 2
dipped 2
[later 2
red 2
friends 2
telling 2
curiouser 2
ugly 2
delightful 2
body 2
laughing 2
fine 2
meekly 2
squeaking 2
fancied 2
dinah’ll 2
appear 2
shaped 2
ma 2
uglification 2
rush 2
remarkable 2
rubbing 2
pause 2
part 2
wake 2
cares 2
explanation 2
started 2
sneezes 2
sang 2
row 2
wine 2
cushion 2
learnt 2
bark 2
encouraging 2
ringlets 2
executions 2
became 2
locks 2
hedge 2
tumbling 2
yawned 2
frog 2
mixed 2
heart 2
drunk 2
choice 2
earnestly 2
cup 2
names 2
scream 2
stamping 2
fountains 2
directed 2
startled 2
caused 2
righthand 2
sending 2
sorrowful 2
beasts 2
presently 2
sorrow 2
neither 2
sh 2
snatch 2
also 2
wig 2
invitation 2
absurd 2
nowhere 2
playing 2
line 2
merely 2
sneeze 2
taste 2
woman 2
fight 2
whose 2
useful 2
splashing 2
throwing 2
learning 2
shower 2
deny 2
wants 2
struck 2
watched 2
jaws 2
introduce 2
follow 2
secondly 2
goldfish 2
hurriedly 2
missed 2
blasts 2
wild 2
bird 2
summer 2
notebook 2
unless 2
custody 2
painting 2
forget 2
drive 2
threelegged 2
occurred 2
year 2
stole 2
knowing 2
position 2
advisable 2
quickly 2
curled 2
agree 2
inside 2
paris 2
neatly 2
removed 2
wind 2
relief 2
ornamented 2
changing 2
doubtfully 2
earls 2
addressed 2
lie 2
cupboards 2
already 2
lasted 2
nicely 2
conqueror 2
mile 2
unfolded 2
authority 2
bite 2
shouting 2
experiment 2
entangled 2
kindly 2
everything’s 2
fishfootman 2
ferrets 2
northumbria 2
ring 2
teacups 2
dispute 2
keeping 2
panting 2
triumphantly 2
bear 2
treading 2
trotting 2
railway 2
ordering 2
signed 2
accident 2
sun 2
longitude 2
threw 2
singing 2
forgot 2
straight 2
changes 2
feelings 2
proves 2
pigs 2
we’re 2
law 2
ugh 2
entirely 2
throat 2
dinn 2
presents 2
difficult 2
pebbles 2
contemptuously 2
flamingoes 2
places 2
singers 2
hour 2
tones 2
unrolled 2
ashamed 2
purring 2
sell 2
assembled 2
messages 2
ago 2
plenty 2
hit 2
bend 2
laughed 2
patiently 2
hate 2
clever 2
miserable 2
rude 2
alarm 2
claws 2
lefthand 2
crossexamine 2
knife 2
stretched 2
king’s 2
forehead 2
won 2
guineapig 2
easy 2
showing 2
trembled 2
pineapple 1
prevent 1
twinkled 1
oyster 1
incessantly 1
bag 1
atheling 1
sugar 1
sorrows 1
solid 1
invent 1
tougher 1
tuliproots 1
splash 1
squeaked 1
brushing 1
xi 1
treat 1
years 1
canvas 1
one’s 1
knuckles 1
undoing 1
lately 1
understood 1
resource 1
dropping 1
hjckrrh 1
clamour 1
violence 1
clean 1
drop 1
bleeds 1
sharks 1
marched 1
dayschool 1
examining 1
roots 1
cur 1
turkey 1
hated 1
canterbury 1
stockings 1
fireirons 1
childhood 1
adjourn 1
tastes 1
cardboard 1
yelp 1
pencils 1
purple 1
exclamation 1
weeks 1
send 1
writingdesk 1
teaching 1
ladder 1
prison 1
raising 1
land 1
exact 1
fairly 1
stays 1
fortytwo 1
quicker 1
fifteenth 1
nasty 1
derision 1
stool 1
ada 1
mustardmine 1
dreaming 1
trials 1
louder 1
interrupt 1
meal 1
appearance 1
eel 1
annoyed 1
modern 1
charges 1
bore 1
patience 1
favoured 1
signifies 1
whiles 1
carthorse 1
known 1
uneasy 1
diamonds 1
sink 1
wooden 1
france 1
returning 1
diligently 1
elegant 1
saucepans 1
condemn 1
terribly 1
cost 1
﻿alice’s 1
hoarsely 1
they’ve 1
reasonable 1
currants 1
queens 1
goodnaturedly 1
spades 1
growling 1
prisoner’s 1
bones 1
trickling 1
shrink 1
lower 1
beauti 1
denying 1
ambition 1
neighbour 1
undo 1
sage 1
annoy 1
buttercup 1
unwillingly 1
avoid 1
shakespeare 1
carroll 1
edgar 1
appealed 1
softly 1
interest 1
dig 1
involved 1
readily 1
rapped 1
pattern 1
telescopes 1
flavour 1
fifth 1
teeth 1
dainties 1
crazy 1
grinning 1
books 1
knelt 1
encouraged 1
boxed 1
peering 1
camomile 1
grammar 1
rose 1
dinah’s 1
ways 1
lessonbook 1
pop 1
minded 1
shyly 1
suet 1
spot 1
happening 1
rightly 1
belt 1
fork 1
burnt 1
indignant 1
calling 1
wider 1
breeze 1
chatte 1
comfortable 1
signify 1
acceptance 1
daisies 1
speaker 1
skyrocket 1
pardoned 1
redhot 1
remedies 1
permitted 1
handwriting 1
contemptuous 1
vague 1
lamps 1
cucumberframe 1
forwards 1
believed 1
crashed 1
enjoy 1
punching 1
zigzag 1
alarmed 1
persons 1
gravy 1
worm 1
pink 1
banquet 1
hide 1
crawling 1
somehow 1
towards 1
rearing 1
sheepbells 1
edition 1
subjects 1
balanced 1
passionate 1
thunderstorm 1
presented 1
inquisitively 1
rising 1
choosing 1
finds 1
delay 1
passing 1
neat 1
patriotic 1
tremulous 1
ahem 1
irritated 1
teatray 1
squeezed 1
beak 1
pounds 1
schoolroom 1
judging 1
applause 1
attends 1
bowing 1
simpleton 1
processions 1
impertinent 1
housemaid 1
heap 1
complaining 1
daughter 1
straightened 1
flock 1
meeting 1
pencil 1
birthday 1
educations 1
steady 1
corners 1
happy 1
encourage 1
prove 1
promised 1
ointment 1
refused 1
clearly 1
] 1
rattle 1
wags 1
shock 1
deserved 1
bursting 1
stingy 1
slatepencil 1
respectful 1
disobey 1
share 1
arrow 1
therefore 1
reeling 1
shiver 1
argued 1
pass 1
stopping 1
saves 1
turnup 1
engaged 1
capering 1
shade 1
ful 1
upstairs 1
clubs 1
wings 1
flame 1
c 1
push 1
evidently 1
absence 1
kings 1
sluggard 1
kiss 1
cunning 1
iii 1
anywhere 1
fumbled 1
seriously 1
poky 1
shifting 1
seated 1
paint 1
arithmetic 1
eyelids 1
rippling 1
steamengine 1
complained 1
arch 1
attended 1
chop 1
est 1
dive 1
furiously 1
arguments 1
strings 1
chrysalis 1
fourteenth 1
uncommonly 1
games 1
pairs 1
account 1
milk 1
classics 1
rabbits 1
pleases 1
worried 1
tremble 1
stolen 1
kneel 1
whom 1
haste 1
unlocking 1
standing 1
planning 1
boldly 1
someone 1
bough 1
later 1
footmen 1
chains 1
guilt 1
shared 1
hurrying 1
occasional 1
saucepan 1
soothing 1
lines 1
animal 1
attempt 1
shedding 1
country 1
unable 1
jellyfish 1
skirt 1
advise 1
cross 1
snout 1
manners 1
hollow 1
t 1
lips 1
milkjug 1
gay 1
measure 1
afore 1
esq 1
antipathies 1
memory 1
seeing 1
attempts 1
footman’s 1
prosecute 1
doubling 1
likes 1
result 1
foolish 1
stigand 1
leaving 1
joys 1
balls 1
commotion 1
expected 1
shrieks 1
leap 1
saucer 1
aftertime 1
entrance 1
viii 1
sticks 1
protection 1
juror 1
somersault 1
dates 1
blades 1
flappers 1
tight 1
caterpillar’s 1
flowerpot 1
winter 1
dressed 1
argue 1
waste 1
audibly 1
couple 1
helped 1
wander 1
ledge 1
ancient 1
sob 1
skurried 1
possible 1
grief 1
australia 1
journey 1
insult 1
curving 1
magpie 1
blame 1
quarrelled 1
imitated 1
tidy 1
save 1
gloomily 1
prisoner 1
fitted 1
stiff 1
poured 1
teathings 1
sprawling 1
seals 1
shining 1
muscular 1
theirs 1
mousetraps 1
tide 1
mallets 1
driest 1
climb 1
thin 1
bed 1
skimming 1
flurry 1
quiver 1
punished 1
received 1
thanked 1
buttered 1
curtseying 1
bee 1
arrum 1
grunt 1
peeping 1
blows 1
rises 1
pleasing 1
queerest 1
scale 1
terror 1
v 1
act 1
queerlooking 1
conquest 1
sneezed 1
behead 1
nodded 1
thunder 1
raw 1
disappointment 1
animal’s 1
rats 1
brush 1
win 1
shingle 1
seaside 1
riddle 1
remaining 1
fading 1
ou 1
lock 1
supple 1
fanning 1
pictured 1
noises 1
odd 1
cutting 1
toast 1
precious 1
obstacle 1
howled 1
congereel 1
brain 1
produced 1
ignorant 1
content 1
snorting 1
brighteyed 1
rumbling 1
double 1
trims 1
eels 1
shelves 1
flapper 1
egg 1
eaten 1
field 1
beloved 1
cartwheels 1
wag 1
explained 1
hopeless 1
existence 1
panted 1
crawled 1
recognised 1
hatching 1
jackinthebox 1
insolence 1
flustered 1
nest 1
execute 1
puppy’s 1
finishing 1
promising 1
overcome 1
pigbaby 1
england 1
sands 1
pretend 1
farther 1
dripping 1
truth 1
coast 1
state 1
treated 1
inwards 1
head’s 1
histories 1
curls 1
settling 1
vote 1
favourite 1
lewis 1
brass 1
apiece 1
squeeze 1
wrapping 1
crossly 1
jogged 1
shake 1
engraved 1
roast 1
answers 1
cold 1
letters 1
furious 1
distraction 1
choking 1
crocodile 1
calmly 1
30 1
goodbye 1
toss 1
managing 1
comfort 1
sweettempered 1
closely 1
series 1
blown 1
furrow 1
grey 1
tillie 1
christmas 1
creep 1
humble 1
bound 1
uncorked 1
adding 1
writhing 1
roared 1
lark 1
game’s 1
lessen 1
cucumberframes 1
justice 1
coils 1
tureen 1
eleventh 1
graceful 1
visit 1
kills 1
powdered 1
form 1
vi 1
remembering 1
purpose 1
guard 1
inclined 1
placed 1
lowspirited 1
ridge 1
thirteen 1
inkstand 1
fender 1
ourselves 1
limbs 1
rubbed 1
tricks 1
draggled 1
inquired 1
hearth 1
flashed 1
hundred 1
folding 1
played 1
fighting 1
gazing 1
doze 1
pet 1
scratching 1
fidgeted 1
setting 1
bent 1
depends 1
vinegar 1
affair 1
immense 1
feather 1
custard 1
yards 1
glaring 1
ix 1
frogfootman 1
accustomed 1
picture 1
throne 1
lowing 1
lookingglass 1
pretending 1
croqueting 1
sign 1
overhead 1
tie 1
magic 1
drowned 1
ridiculous 1
wriggling 1
scrambling 1
reality 1
helpless 1
elsie 1
sixpence 1
shy 1
growled 1
pleasanter 1
sister’s 1
brandy 1
couples 1
sends 1
knocked 1
terms 1
pour 1
backsomersault 1
dodged 1
marmalade 1
ink 1
fainting 1
highest 1
respect 1
merrily 1
sits 1
worry 1
cries 1
orange 1
buttons 1
banks 1
wits 1
gained 1
rock 1
d 1
tipped 1
thatched 1
mischief 1
rustled 1
poker 1
attempted 1
fix 1
xii 1
cheated 1
grumbled 1
sound] 1
hippopotamus 1
vanishing 1
doubledup 1
sternly 1
mouse’s 1
burst 1
linked 1
extras 1
shrimp 1
whenever 1
reduced 1
printed 1
grant 1
cannot 1
common 1
tunnel 1
lessonbooks 1
relieved 1
hung 1
oneself 1
herald 1
starfish 1
bother 1
despair 1
flown 1
appearing 1
fulcrum 1
ours 1
zealand 1
flying 1
deepest 1
clapping 1
waters 1
slates’ll 1
figures 1
toffee 1
proposal 1
pepperbox 1
lazy 1
closer 1
teapot 1
brave 1
pretexts 1
mournful 1
tonight 1
retire 1
energetic 1
pace 1
drawlingmaster 1
multiplication 1
underneath 1
comfortably 1
becoming 1
fig 1
laughter 1
rise 1
trusts 1
affectionately 1
arminarm 1
pronounced 1
racecourse 1
murdering 1
blacking 1
grazed 1
axes 1
languid 1
downward 1
immediate 1
fifteen 1
knock 1
officer 1
uncomfortably 1
pressing 1
straightening 1
curtsey 1
leant 1
shrieked 1
hiss 1
boon 1
pretty 1
unjust 1
respectable 1
beautify 1
pulled 1
eating 1
pleasant 1
trot 1
minding 1
clinging 1
losing 1
curtain 1
holiday 1
tittered 1
rathole 1
doorway 1
hatters 1
explanations 1
fits 1
whoever 1
remain 1
fellows 1
familiarly 1
fryingpan 1
ones 1
loose 1
flowerbeds 1
seashore 1
whistling 1
lesson 1
enormous 1
whistle 1
pope 1
latin 1
faint 1
hearthrug 1
hottempered 1
newspapers 1
locked 1
feathers 1
piecrust 1
ravens 1
usurpation 1
various 1
largest 1
lullaby 1
pointed 1
gallons 1
cheap 1
fair 1
dried 1
positively 1
shillings 1
chimneys 1
london 1
lifted 1
murder 1
sharing 1
shepherd 1
tumbled 1
truthful 1
cheeks 1
submitted 1
licking 1
leaders 1
idiotic 1
hoped 1
flew 1
denies 1
he’d 1
altered 1
swallowing 1
lose 1
fireplace 1
works 1
prize 1
harm 1
conduct 1
oldest 1
upsetting 1
occasionally 1
shark 1
glanced 1
variations 1
pitied 1
accounts 1
puffed 1
morals 1
swallow 1
producing 1
branch 1
baked 1
begged 1
cheerfully 1
ye 1
opinion 1
crouched 1
he’ll 1
chuckled 1
feebly 1
circle 1
rich 1
tinkling 1
noticing 1
extra 1
pegs 1
lit 1
unusually 1
opposite 1
writingdesks 1
improve 1
normans 1
sizes 1
accounting 1
bythebye 1
handsome 1
promise 1
loveliest 1
frontispiece 1
killing 1
expressing 1
touch 1
rushed 1
desperately 1
canary 1
actually 1
fairytales 1
pulling 1
splendidly 1
snappishly 1
terrier 1
shape 1
darkness 1
prettier 1
stupidly 1
dunce 1
ending 1
woke 1
honest 1
moon 1
past 1
paused 1
beds 1
cattle 1
die 1
breadknife 1
rudeness 1
spoken 1
difficulties 1
warning 1
hedges 1
length 1
neverending 1
grew 1
fancying 1
leading 1
collar 1
roughly 1
slippery 1
ache 1
eats 1
hatter’s 1
drawing 1
vii 1
station 1
scolded 1
fixed 1
counting 1
grins 1
choke 1
hopeful 1
whispers 1
thick 1
reminding 1
thrown 1
farmer 1
family 1
twelfth 1
daresay 1
dozing 1
addressing 1
croqueted 1
sentenced 1
maps 1
emphasis 1
daisychain 1
uglifying 1
meanwhile 1
heels 1
executioner’s 1
goodnatured 1
shilling 1
geography 1
wept 1
parts 1
introduced 1
spell 1
yelled 1
shiny 1
soldier 1
memorandum 1
axis 1
dismay 1
teases 1
lazily 1
weren’t 1
farmyard 1
frighten 1
partner 1
chief 1
lookout 1
gather 1
ceiling 1
globe 1
furrows 1
nightair 1
nile 1
able 1
nay 1
childlife 1
refreshments 1
ate 1
sand 1
search 1
faintly 1
rope 1
onions 1
brother’s 1
coward 1
untwist 1
pun 1
speed 1
ii 1
death 1
meat 1
fishes 1
iv 1
fills 1
else’s 1
dreamy 1
smoke 1
laugh 1
ridges 1
kettle 1
listeners 1
screaming 1
nevertheless 1
lacie 1
fluttered 1
reasons 1
wearily 1
forepaws 1
fortunately 1
butterfly 1
curly 1
backs 1
neighbouring 1
failure 1
consented 1
dog’s 1
arranged 1
vulgar 1
company 1
tops 1
slightest 1
centre 1
learned 1
hat 1
twenty 1
clasped 1
trampled 1
impatient 1
hid 1
desperate 1
wore 1
bawled 1
eh 1
declared 1
feared 1
uncivil 1
burning 1
ma’am 1
consultation 1
lizard’s 1
disgust 1
w 1
disagree 1
splashed 1
suppress 1
welcome 1
loving 1
accusation 1
seaography 1
riper 1
empty 1
wife 1
afford 1
uglify 1
kissed 1
bristling 1
dreamed 1
kill 1
lastly 1
fourth 1
hm 1
reaching 1
bathing 1
morsel 1
soles 1
subdued 1
whereupon 1
lad 1
practice 1
carrier 1
executes 1
strength 1
muddle 1
needs 1
cleared 1
sour 1
provoking 1
wondered 1
drinking 1
reeds 1
abide 1
puzzle 1
plainly 1
patted 1
uncommon 1
accidentally 1
raven 1
alternately 1
belong 1
lest 1
listened 1
clearer 1
moderate 1
houses 1
william’s 1
lodging 1
spreading 1
millennium 1
velvet 1
given 1
bitter 1
character 1
piteous 1
labelled 1
adoption 1
partners 1
machines 1
stalk 1
armchair 1
beheading 1
mineral 1
mayn’t 1
fat 1
beast 1
upright 1
pence 1
denial 1
crept 1
jaw 1
awfully 1
sorry 1
x 1
cackled 1
flung 1
tied 1
downwards 1
cherrytart 1
walrus 1
spite 1
elbows 1
agony 1
completely 1
son 1
secret 1
invented 1
chanced 1
seldom 1
salmon 1
circumstances 1
soft 1
oblong 1
quarrel 1
sixteenth 1
toys 1
twentieth 1
airs 1
carry 1
bookshelves 1
died 1
severity 1
waist 1
idiot 1
arrived 1
expression 1
bone 1
scaly 1
mournfully 1
that’ll 1
waterwell 1
barking 1
growls 1
flinging 1
askance 1
stupidest 1
rustling 1
injure 1
vegetable 1
queershaped 1
offend 1
contradicted 1
settle 1
fanned 1
barleysugar 1
contempt 1
swallowed 1
puss 1
tomorrow 1
dormouse’s 1
sobbed 1
wait 1
